[
    {
        "id": "1",
        "image": "\/assets\/images\/image1.png"
    },
    {
        "id": "2",
        "image": "\/assets\/images\/image2.jpg"
    },
    {
        "id": "3",
        "image": "\/assets\/images\/image3.jpg"
    },
    {
        "id": "4",
        "image": "\/assets\/images\/image4.jpg"
    },
    {
        "id": "5",
        "image": "\/assets\/images\/image5.jpg"
    },
    {
        "id": "6",
        "image": "\/assets\/images\/image6.jpg"
    },
    {
        "id": "7",
        "image": "\/assets\/images\/image7.jpg"
    },
    {
        "id": "8",
        "image": "\/assets\/images\/image8.jpg"
    },
    {
        "id": "9",
        "image": "\/assets\/images\/image9.jpg"
    },
    {
        "id": "10",
        "image": "\/assets\/images\/image10.jpg"
    },
    {
        "id": "11",
        "image": "\/assets\/images\/image11.jpg"
    },
    {
        "id": "12",
        "image": "\/assets\/images\/image12.jpg"
    },
    {
        "id": "13",
        "image": "\/assets\/images\/image13.jpg"
    },
    {
        "id": "14",
        "image": "\/assets\/images\/image14.jpg"
    },
    {
        "id": "15",
        "image": "\/assets\/images\/image15.jpg"
    },
    {
        "id": "16",
        "image": "\/assets\/images\/image16.jpg"
    },
    {
        "id": "17",
        "image": "\/assets\/images\/image17.jpg"
    },
    {
        "id": "18",
        "image": "\/assets\/images\/image18.jpg"
    },
    {
        "id": "19",
        "image": "\/assets\/images\/image19.jpg"
    },
    {
        "id": "20",
        "image": "\/assets\/images\/image20.jpg"
    },
    {
        "id": "21",
        "image": "\/assets\/images\/image21.jpg"
    }
]